simulation/qsim/AJ.msim.vcd
$comment
	File created using the following command:
		vcd file AJ.msim.vcd -direction
$end
$date
	Fri Jan 10 14:25:24 2014
$end
$version
	ModelSim Version 10.1d
$end
$timescale
	1ps
$end
$scope module AJ_vlg_vec_tst $end
$var reg 16 ! Xin [15:0] $end
$var reg 16 " Yin [15:0] $end
$var reg 16 # angle [15:0] $end
$var reg 1 $ clock $end
$var wire 1 % Xout [15] $end
$var wire 1 & Xout [14] $end
$var wire 1 ' Xout [13] $end
$var wire 1 ( Xout [12] $end
$var wire 1 ) Xout [11] $end
$var wire 1 * Xout [10] $end
$var wire 1 + Xout [9] $end
$var wire 1 , Xout [8] $end
$var wire 1 - Xout [7] $end
$var wire 1 . Xout [6] $end
$var wire 1 / Xout [5] $end
$var wire 1 0 Xout [4] $end
$var wire 1 1 Xout [3] $end
$var wire 1 2 Xout [2] $end
$var wire 1 3 Xout [1] $end
$var wire 1 4 Xout [0] $end
$var wire 1 5 Yout [15] $end
$var wire 1 6 Yout [14] $end
$var wire 1 7 Yout [13] $end
$var wire 1 8 Yout [12] $end
$var wire 1 9 Yout [11] $end
$var wire 1 : Yout [10] $end
$var wire 1 ; Yout [9] $end
$var wire 1 < Yout [8] $end
$var wire 1 = Yout [7] $end
$var wire 1 > Yout [6] $end
$var wire 1 ? Yout [5] $end
$var wire 1 @ Yout [4] $end
$var wire 1 A Yout [3] $end
$var wire 1 B Yout [2] $end
$var wire 1 C Yout [1] $end
$var wire 1 D Yout [0] $end
$var wire 1 E sampler $end
$scope module i1 $end
$var wire 1 F gnd $end
$var wire 1 G vcc $end
$var wire 1 H unknown $end
$var tri1 1 I devclrn $end
$var tri1 1 J devpor $end
$var tri1 1 K devoe $end
$upscope $end
$upscope $end
$enddefinitions $end
#0
$dumpvars
b100000000 !
b0 "
b101101000000000 #
0$
04
03
02
01
00
0/
0.
0-
0,
0+
0*
0)
0(
0'
0&
0%
0D
0C
0B
0A
0@
0?
0>
0=
0<
0;
0:
09
08
07
06
05
xE
0F
1G
xH
1I
1J
1K
$end
#5000
1$
0E
#10000
0$
1E
#15000
1$
0E
#20000
0$
1E
#25000
1$
0E
#30000
0$
1E
#35000
1$
0E
#40000
0$
1E
#45000
1$
0E
#50000
0$
1E
#55000
1$
0E
#60000
0$
1E
#65000
1$
0E
#70000
0$
1E
#75000
1$
0E
#80000
0$
1E
#85000
1$
0E
#90000
0$
1E
#95000
1$
0E
#100000
0$
1E
#105000
1$
0E
#110000
0$
1E
#115000
1$
0E
#120000
0$
1E
#125000
1$
0E
#130000
0$
1E
#135000
1$
0E
#140000
0$
1E
#145000
1$
0E
#150000
0$
1E
#155000
1$
0E
#160000
0$
1E
#165000
1$
0E
#170000
0$
1E
#175000
1$
0E
#180000
0$
1E
#185000
1$
0E
#190000
0$
1E
#195000
1$
0E
#200000
0$
1E
#205000
1$
0E
#210000
0$
1E
#215000
1$
0E
#220000
0$
1E
#225000
1$
0E
#230000
0$
1E
#235000
1$
0E
#240000
0$
1E
#245000
1$
0E
#250000
0$
1E
#255000
1$
0E
#260000
0$
1E
#265000
1$
0E
#270000
0$
1E
#275000
1$
0E
#280000
0$
1E
#285000
1$
0E
#290000
0$
1E
#295000
1$
0E
#300000
0$
1E
#305000
1$
0E
#310000
0$
1E
#315000
1$
0E
#320000
0$
1E
#325000
1$
0E
#330000
0$
1E
#335000
1$
0E
#340000
0$
1E
#345000
1$
0E
#350000
0$
1E
#355000
1$
0E
#360000
0$
1E
#365000
1$
0E
#370000
0$
1E
#375000
1$
0E
#380000
0$
1E
#385000
1$
0E
#390000
0$
1E
#395000
1$
0E
#400000
0$
1E
#405000
1$
0E
#410000
0$
1E
#415000
1$
0E
#420000
0$
1E
#425000
1$
0E
#430000
0$
1E
#435000
1$
0E
#440000
0$
1E
#445000
1$
0E
#450000
0$
1E
#455000
1$
0E
#460000
0$
1E
#465000
1$
0E
#470000
0$
1E
#475000
1$
0E
#480000
0$
1E
#485000
1$
0E
#490000
0$
1E
#495000
1$
0E
#500000
0$
1E
#505000
1$
0E
#510000
0$
1E
#515000
1$
0E
#520000
0$
1E
#525000
1$
0E
#530000
0$
1E
#535000
1$
0E
#540000
0$
1E
#545000
1$
0E
#550000
0$
1E
#555000
1$
0E
#560000
0$
1E
#565000
1$
0E
#570000
0$
1E
#575000
1$
0E
#580000
0$
1E
#585000
1$
0E
#590000
0$
1E
#595000
1$
0E
#600000
0$
1E
#605000
1$
0E
#610000
0$
1E
#615000
1$
0E
#620000
0$
1E
#625000
1$
0E
#630000
0$
1E
#635000
1$
0E
#640000
0$
1E
#645000
1$
0E
#650000
0$
1E
#655000
1$
0E
#660000
0$
1E
#665000
1$
0E
#670000
0$
1E
#675000
1$
0E
#680000
0$
1E
#685000
1$
0E
#690000
0$
1E
#695000
1$
0E
#700000
0$
1E
#705000
1$
0E
#710000
0$
1E
#715000
1$
0E
#720000
0$
1E
#725000
1$
0E
#730000
0$
1E
#735000
1$
0E
#740000
0$
1E
#745000
1$
0E
#750000
0$
1E
#755000
1$
0E
#760000
0$
1E
#765000
1$
0E
#770000
0$
1E
#775000
1$
0E
#780000
0$
1E
#785000
1$
0E
#790000
0$
1E
#795000
1$
0E
#800000
0$
1E
#805000
1$
0E
#810000
0$
1E
#815000
1$
0E
#820000
0$
1E
#825000
1$
0E
#830000
0$
1E
#835000
1$
0E
#840000
0$
1E
#845000
1$
0E
#850000
0$
1E
#855000
1$
0E
#860000
0$
1E
#865000
1$
0E
#870000
0$
1E
#875000
1$
0E
#880000
0$
1E
#885000
1$
0E
#890000
0$
1E
#895000
1$
0E
#900000
0$
1E
#905000
1$
0E
#910000
0$
1E
#915000
1$
0E
#920000
0$
1E
#925000
1$
0E
#930000
0$
1E
#935000
1$
0E
#940000
0$
1E
#945000
1$
0E
#950000
0$
1E
#955000
1$
0E
#960000
0$
1E
#965000
1$
0E
#970000
0$
1E
#975000
1$
0E
#980000
0$
1E
#985000
1$
0E
#990000
0$
1E
#995000
1$
0E
